<?xml version="1.0" encoding="UTF-8" standalone="no"?>
<svg
   width="207.16148"
   height="48.670506"
   viewBox="0 0 194.21395 45.628564"
   version="1.1"
   id="svg4"
   sodipodi:docname="logo.svg"
   inkscape:version="1.1 (c4e8f9ed74, 2021-05-24)"
   inkscape:export-filename="/home/tux/Dokumente/hhu/Masterarbeit/dd-OS/logo.png"
   inkscape:export-xdpi="70"
   inkscape:export-ydpi="70"
   xmlns:inkscape="http://www.inkscape.org/namespaces/inkscape"
   xmlns:sodipodi="http://sodipodi.sourceforge.net/DTD/sodipodi-0.dtd"
   xmlns="http://www.w3.org/2000/svg"
   xmlns:svg="http://www.w3.org/2000/svg"
   xmlns:rdf="http://www.w3.org/1999/02/22-rdf-syntax-ns#"
   xmlns:cc="http://creativecommons.org/ns#"
   xmlns:dc="http://purl.org/dc/elements/1.1/">
  <metadata
     id="metadata10">
    <rdf:RDF>
      <cc:Work
         rdf:about="">
        <dc:format>image/svg+xml</dc:format>
        <dc:type
           rdf:resource="http://purl.org/dc/dcmitype/StillImage" />
        <dc:title />
      </cc:Work>
    </rdf:RDF>
  </metadata>
  <defs
     id="defs8" />
  <sodipodi:namedview
     pagecolor="#ffffff"
     bordercolor="#666666"
     borderopacity="1"
     objecttolerance="10"
     gridtolerance="10"
     guidetolerance="10"
     inkscape:pageopacity="0"
     inkscape:pageshadow="2"
     inkscape:window-width="1881"
     inkscape:window-height="1057"
     id="namedview6"
     showgrid="false"
     inkscape:snap-global="false"
     inkscape:zoom="4.8370643"
     inkscape:cx="99.027007"
     inkscape:cy="71.841096"
     inkscape:window-x="39"
     inkscape:window-y="0"
     inkscape:window-maximized="1"
     inkscape:current-layer="svg4"
     inkscape:document-rotation="0"
     showguides="true"
     inkscape:guide-bbox="true"
     fit-margin-top="0"
     fit-margin-left="0"
     fit-margin-right="0"
     fit-margin-bottom="0"
     inkscape:pagecheckerboard="0" />
  <text
     xml:space="preserve"
     style="font-style:normal;font-weight:normal;font-size:10.6446px;line-height:8.85976px;font-family:sans-serif;text-align:start;letter-spacing:0px;word-spacing:0px;text-anchor:start;fill:#ffcc00;fill-opacity:1;stroke:none;stroke-width:0.665291"
     x="2.1934495"
     y="37.308678"
     id="text939"
     inkscape:export-xdpi="70.186913"
     inkscape:export-ydpi="70.186913"
     transform="scale(1.063335,0.9404374)"><tspan
       sodipodi:role="line"
       x="2.1934495"
       y="37.308678"
       style="font-style:normal;font-variant:normal;font-weight:normal;font-stretch:normal;font-family:FreeSans;-inkscape-font-specification:FreeSans;text-align:start;text-anchor:start;fill:#ffcc00;stroke-width:0.665291"
       id="tspan941">ARMv8-A</tspan><tspan
       sodipodi:role="line"
       x="2.1934495"
       y="46.596718"
       style="font-style:normal;font-variant:normal;font-weight:normal;font-stretch:normal;font-family:FreeSans;-inkscape-font-specification:FreeSans;text-align:start;text-anchor:start;fill:#ffcc00;stroke-width:0.665291"
       id="tspan1445">64bit</tspan></text>
  <path
     id="path846-6-2-1-7"
     style="fill:#ffffff;fill-opacity:0.69999999;stroke:#000000;stroke-width:0.46312514;stroke-linecap:round;stroke-linejoin:round;stroke-miterlimit:4;stroke-dasharray:none"
     d="m 114.66136,11.455811 a 17.15905,16.287222 0 0 0 -17.159696,16.287837 17.15905,16.287222 0 0 0 17.159696,16.287835 17.15905,16.287222 0 0 0 17.1597,-16.287835 17.15905,16.287222 0 0 0 -17.1597,-16.287837 z m 0,8.754577 a 7.9445516,7.5342573 0 0 1 7.94409,7.53326 7.9445516,7.5342573 0 0 1 -7.94409,7.533259 7.9445516,7.5342573 0 0 1 -7.94409,-7.533259 7.9445516,7.5342573 0 0 1 7.94409,-7.53326 z" />
  <path
     id="path846-6-2-1-7-3"
     style="fill:#ffffff;fill-opacity:0.69999999;stroke:#000000;stroke-width:0.46312514;stroke-linecap:round;stroke-linejoin:round;stroke-miterlimit:4;stroke-dasharray:none"
     d="m 175.09113,10.023281 a 17.15905,16.287222 0 0 0 -17.1597,16.287836 17.15905,16.287222 0 0 0 0.0152,0.673708 h -0.004 a 7.9445516,7.5342572 0 0 1 0.0417,0.731348 7.9445516,7.5342572 0 0 1 -7.9441,7.533259 7.9445516,7.5342572 0 0 1 -7.94409,-7.533259 7.9445516,7.5342572 0 0 1 0.0379,-0.731348 h -9.23459 a 17.15905,16.287222 0 0 0 -0.019,0.731348 17.15905,16.287222 0 0 0 17.1597,16.287836 17.15905,16.287222 0 0 0 17.1597,-16.287836 17.15905,16.287222 0 0 0 -0.0152,-0.673705 17.15905,16.287222 0 0 0 -0.004,-0.02161 17.15905,16.287222 0 0 0 0,-0.03603 h -0.004 a 7.9445516,7.5342572 0 0 1 -0.0304,-0.673707 7.9445516,7.5342572 0 0 1 7.94409,-7.53326 7.9445516,7.5342572 0 0 1 7.94409,7.53326 7.9445516,7.5342572 0 0 1 -0.0417,0.731351 h 9.23836 a 17.15905,16.287222 0 0 0 0.019,-0.731351 17.15905,16.287222 0 0 0 -17.1597,-16.287837 z" />
  <path
     id="rect842-35-8-7"
     style="fill:#4278af;fill-opacity:1;stroke:none;stroke-width:2.17643;stroke-linecap:round;stroke-linejoin:round;stroke-miterlimit:4;stroke-dasharray:none"
     d="M 1.9635696,4.2251041 V 26.62476 h 9.2338724 c 0.06839,-3.998715 3.443594,-7.250524 7.674861,-7.35473 0.0683,-8.4e-4 0.137991,-8.4e-4 0.206313,0 4.311485,-1.11e-4 7.808378,3.281911 7.879381,7.35473 L 36.27245,26.61032 C 36.271942,17.003986 28.31859,10.838753 19.123468,10.839082 16.38697,10.840477 13.689862,11.46252 11.25844,12.654349 V 4.2251041 Z"
     sodipodi:nodetypes="ccccccccccc" />
  <path
     id="path846-6-2-1-7-3-6"
     style="fill:#4278af;fill-opacity:1;stroke:none;stroke-width:4.02518;stroke-linecap:round;stroke-linejoin:round;stroke-miterlimit:4;stroke-dasharray:none"
     d="m 37.207885,4.1942747 -0.0063,22.4979073 h 9.23746 c -0.02623,-0.242734 -0.03999,-0.486532 -0.04126,-0.730534 4.22e-4,-4.160555 3.556838,-7.533224 7.943964,-7.533531 4.387127,3.06e-4 7.943542,3.372976 7.943966,7.533531 4.07e-4,0.224531 -0.0098,0.448967 -0.03049,0.672636 h -0.0036 c -1.4e-5,0.01192 -1.4e-5,0.02384 0,0.03577 l -0.0036,0.02213 c -0.01029,0.22465 -0.01567,0.449478 -0.01615,0.67434 -4.68e-4,8.995813 7.682554,16.288471 17.159897,16.288026 9.477347,4.44e-4 17.160365,-7.292214 17.159905,-16.288026 -7.94e-4,-0.244189 -0.0078,-0.488329 -0.01979,-0.732238 h -9.233881 c 0.02508,0.243354 0.03762,0.487723 0.03762,0.732238 -4.21e-4,4.160554 -3.556842,7.533224 -7.94397,7.533531 -4.387126,-3.07e-4 -7.943543,-3.372977 -7.943965,-7.533531 0.0012,-0.24457 0.01498,-0.488939 0.04126,-0.732238 h -0.0036 c 0.0097,-0.224094 0.01445,-0.448355 0.01435,-0.672636 C 71.500131,16.966503 63.818203,9.6741211 54.34156,9.6736245 51.551153,9.6735687 48.802831,10.319456 46.334803,11.555304 V 4.1835425 Z"
     sodipodi:nodetypes="ccccccccccccccccccccccccc" />
</svg>
